https://www.birmingham.ac.uk/index.aspx,birmingham.ac.uk
http://www.bristol.ac.uk/,bristol.ac.uk
https://www.cam.ac.uk/,cam.ac.uk
https://www.cardiff.ac.uk/,cardiff.ac.uk
https://www.dur.ac.uk/,dur.ac.uk
https://www.ed.ac.uk/,ed.ac.uk
https://www.exeter.ac.uk/,exeter.ac.uk
https://www.gla.ac.uk/,gla.ac.uk
https://www.imperial.ac.uk/,imperial.ac.uk
https://www.kcl.ac.uk,kcl.ac.uk
https://www.leeds.ac.uk/,leeds.ac.uk
https://www.liverpool.ac.uk/,liverpool.ac.uk
http://www.lse.ac.uk/,lse.ac.uk
https://www.manchester.ac.uk/,manchester.ac.uk
https://www.ncl.ac.uk/,ncl.ac.uk
https://www.nottingham.ac.uk/,nottingham.ac.uk
http://www.ox.ac.uk/,ox.ac.uk
https://www.qmul.ac.uk/,qmul.ac.uk
https://www.qub.ac.uk/,qub.ac.uk
https://www.sheffield.ac.uk/,sheffield.ac.uk
https://www.southampton.ac.uk/,southampton.ac.uk
https://www.ucl.ac.uk/,ucl.ac.uk
https://warwick.ac.uk/,warwick.ac.uk
https://www.york.ac.uk/,york.ac.uk
