﻿institution,uk,Aberystwyth University,aber.ac.uk
institution,uk,Anglia Ruskin University,anglia.ac.uk
institution,uk,Aston University,aston.ac.uk
institution,uk,Bangor University,bangor.ac.uk
institution,uk,Bath Spa University,bathspa.ac.uk
institution,uk,"Birkbeck, University of London",bbk.ac.uk
institution,uk,Birmingham City University,bcu.ac.uk
institution,uk,Bournemouth University,bournemouth.ac.uk
institution,uk,Brunel University London,brunel.ac.uk
institution,uk,Buckinghamshire New University,bucks.ac.uk
institution,uk,Canterbury Christ Church University,canterbury.ac.uk
institution,uk,Cardiff Metropolitan University (UWIC),cardiffmet.ac.uk
institution,uk,Cardiff University,cardiff.ac.uk
institution,uk,"City, University of London",city.ac.uk
institution,uk,Coventry University,coventry.ac.uk
institution,uk,Cranfield University,cranfield.ac.uk
institution,uk,De Montfort University,dmu.ac.uk
institution,uk,Durham University,dur.ac.uk
institution,uk,Edge Hill University,edgehill.ac.uk
institution,uk,Edinburgh Napier University,napier.ac.uk
institution,uk,Falmouth University,falmouth.ac.uk
institution,uk,Glasgow Caledonian University,gcu.ac.uk
institution,uk,"Goldsmiths, University of London",gold.ac.uk
institution,uk,Guildhall School of Music and Drama,gsmd.ac.uk
institution,uk,Heriot-Watt University,hw.ac.uk
institution,uk,Heythrop College,heythrop.ac.uk
institution,uk,Imperial College London,imperial.ac.uk
institution,uk,Keele University,keele.ac.uk
institution,uk,King’s College London,kcl.ac.uk
institution,uk,Kingston University,kingston.ac.uk
institution,uk,Lancaster University,lancaster.ac.uk
institution,uk,Leeds Beckett University,leedsbeckett.ac.uk
institution,uk,Leeds Trinity University,leedstrinity.ac.uk
institution,uk,Liverpool Hope University,hope.ac.uk
institution,uk,Liverpool John Moores University,ljmu.ac.uk
institution,uk,London Business School,london.edu
institution,uk,London Metropolitan University,londonmet.ac.uk
institution,uk,London School of Hygiene and Tropical Medicine,lshtm.ac.uk
institution,uk,London South Bank University,lsbu.ac.uk
institution,uk,Loughborough University,lboro.ac.uk
institution,uk,Manchester Metropolitan University,mmu.ac.uk
institution,uk,Middlesex University,mdx.ac.uk
institution,uk,Newcastle University,ncl.ac.uk
institution,uk,Northumbria University,northumbria.ac.uk
institution,uk,Nottingham Trent University,ntu.ac.uk
institution,uk,Oxford Brookes University,brookes.ac.uk
institution,uk,Plymouth Marjon University,marjon.ac.uk
institution,uk,Plymouth University,plymouth.ac.uk
institution,uk,Queen Margaret University,qmu.ac.uk
institution,uk,Queen Mary University of London,qmul.ac.uk
institution,uk,Queen’s University Belfast,qub.ac.uk
institution,uk,Regent’s University London,regents.ac.uk
institution,uk,Robert Gordon University,rgu.ac.uk
institution,uk,Royal College of Art,rca.ac.uk
institution,uk,"Royal College of Music, London",rcm.ac.uk
institution,uk,"Royal Holloway, University of London",royalholloway.ac.uk
institution,uk,Sheffield Hallam University,shu.ac.uk
institution,uk,"SOAS, University of London",soas.ac.uk
institution,uk,Southampton Solent University,solent.ac.uk
institution,uk,"St George’s, University of London",sgul.ac.uk
institution,uk,Staffordshire University,staffs.ac.uk
institution,uk,Swansea University,swansea.ac.uk
institution,uk,Teesside University,tees.ac.uk
institution,uk,The Glasgow School of Art,gsa.ac.uk
institution,uk,The London School of Economics and Political Science,lse.ac.uk
institution,uk,The Open University,open.ac.uk
institution,uk,The Royal Central School of Speech & Drama,cssd.ac.uk
institution,uk,The Royal Veterinary College,rvc.ac.uk
institution,uk,The University of Buckingham,buckingham.ac.uk
institution,uk,The University of Manchester,manchester.ac.uk
institution,uk,The University of Nottingham,nottingham.ac.uk
institution,uk,The University of West London,uwl.ac.uk
institution,uk,Trinity Laban Conservatoire of Music and Dance,trinitylaban.ac.uk
institution,uk,Ulster University,ulster.ac.uk
institution,uk,University College London,ucl.ac.uk
institution,uk,University of Aberdeen,abdn.ac.uk
institution,uk,University of Bath,bath.ac.uk
institution,uk,University of Bedfordshire,beds.ac.uk
institution,uk,University of Birmingham,birmingham.ac.uk
institution,uk,University of Bolton,bolton.ac.uk
institution,uk,University of Bradford,bradford.ac.uk
institution,uk,University of Brighton,brighton.ac.uk
institution,uk,University of Bristol,bristol.ac.uk
institution,uk,University of Cambridge,cam.ac.uk
institution,uk,University of Central Lancashire,uclan.ac.uk
institution,uk,University of Chester,chester.ac.uk
institution,uk,University of Chichester,chi.ac.uk
institution,uk,University of Cumbria,cumbria.ac.uk
institution,uk,University of Derby,derby.ac.uk
institution,uk,University of Dundee,dundee.ac.uk
institution,uk,University of East Anglia,uea.ac.uk
institution,uk,University of East London,uel.ac.uk
institution,uk,University of Edinburgh,ed.ac.uk
institution,uk,University of Essex,essex.ac.uk
institution,uk,University of Exeter,exeter.ac.uk
institution,uk,University of Glasgow,gla.ac.uk
institution,uk,University of Gloucestershire,glos.ac.uk
institution,uk,University of Greenwich,gre.ac.uk
institution,uk,University of Hertfordshire,herts.ac.uk
institution,uk,University of Huddersfield,hud.ac.uk
institution,uk,University of Hull,hull.ac.uk
institution,uk,University of Kent,kent.ac.uk
institution,uk,University of Leeds,leeds.ac.uk
institution,uk,University of Leicester,le.ac.uk
institution,uk,University of Lincoln,lincoln.ac.uk
institution,uk,University of Liverpool,liverpool.ac.uk
institution,uk,University of London,london.ac.uk
institution,uk,University of Northampton,northampton.ac.uk
institution,uk,University of Oxford,ox.ac.uk
institution,uk,University of Portsmouth,port.ac.uk
institution,uk,University of Reading,reading.ac.uk
institution,uk,University of Roehampton,roehampton.ac.uk
institution,uk,University of Salford,salford.ac.uk
institution,uk,University of Sheffield,sheffield.ac.uk
institution,uk,University of South Wales,southwales.ac.uk
institution,uk,University of Southampton,southampton.ac.uk
institution,uk,University of St Andrews,st-andrews.ac.uk
institution,uk,University of Stirling,stir.ac.uk
institution,uk,University of Strathclyde,strath.ac.uk
institution,uk,University of Sunderland,sunderland.ac.uk
institution,uk,University of Surrey,surrey.ac.uk
institution,uk,University of Sussex,sussex.ac.uk
institution,uk,University of the Arts London,arts.ac.uk
institution,uk,University of the Highlands and Islands,uhi.ac.uken
institution,uk,"University of the West of England, Bristol",uwe.ac.uk
institution,uk,University of the West of Scotland,uws.ac.uk
institution,uk,University of Wales,wales.ac.uk
institution,uk,University of Wales Trinity Saint David,uwtsd.ac.uk
institution,uk,University of Warwick,warwick.ac.uk
institution,uk,University of Westminster,westminster.ac.uk
institution,uk,University of Winchester,winchester.ac.uk
institution,uk,University of Wolverhampton,wlv.ac.uk
institution,uk,University of Worcester,worcester.ac.uk
institution,uk,University of York,york.ac.uk
institution,uk,Wrexham Glyndwr University,glyndwr.ac.uk
institution,uk,York St John University,yorksj.ac.uk